Name, LastName, BirthDate
Tori, Sama,26/07/1965
Annis, Mascia,18/01/1966
Colleen, Sellers,9/3/1966
Lakeesha, Levenson,1/4/1967
Mariette, Ouzts,7/10/1970
Jack, Sosa,6/4/1971
Rebbecca, Buth,21/11/1976
Ronny, Grounds,22/04/1977
Lashanda, Espitia,26/07/1979
Lauralee, Painter,31/12/1979
Raul, Seaton,28/12/1980
Sanjuanita, Brinkmann,17/07/1983
Christena, Staiger,25/07/1986
Sherill, Vancleave,20/08/1986
Stasia, Lyke,30/06/1989
Roosevelt, Kitzmiller,17/09/1989
Aracelis, Alward,22/05/1993
Lucy, Holtz,3/12/1993
Jodi, Igoe,5/11/1994
Melvin, Manor,9/3/1996
Katheryn, Hockett,6/7/1997
Maida, Halderman,31/08/2002
Beckie, Kawasaki,29/05/2004
Emanuel, Kirschner,9/7/2008
Theressa, Vanwagoner,3/2/2009
Christi, Newhouse,19/11/1964
Angle, Jacobson,10/5/1970
Louella, Gowans,21/12/1970
Paris, Tocci,13/06/1972
Natashia, Marble,15/11/1972
Lecia, Pai,10/12/1972
Timothy, Combes,24/07/1975
Keturah, Balliet,28/01/1976
Domenica, Blakes,8/2/1977
Daren, Pavia,19/01/1979
Miguel, Trahan,3/1/1982
Mona, Victorino,16/05/1984
Darius, Kerman,12/2/1986
Signe, Bennefield,10/1/1987
Joe, Kulas,21/02/1988
Andy, Daulton,26/09/1991
Dudley, Mcfarren,29/03/1992
Asa, Hatchell,9/8/1992
Orlando, Tarpey,29/09/1996
Marquis, Steinberg,7/3/1998
Shenna, Drewes,12/9/1999
Brenna, Russaw,23/04/2001
Tabitha, Tenorio,19/09/2001
Glenn, Quaranta,4/12/2001
Ona, Harries,23/03/2006